…
join%>%group_by(Country)%>%summarize(mean_Emissions=mean(Total_Emissions),sd(Total_Emissions))%>%arrange(desc(mean_Emissions))

## # A tibble: 109 x 3
##    Country            mean_Emissions `sd(Total_Emissions)`
##    <chr>                       <dbl>                 <dbl>
##  1 Russian Federation       2670707.               176026.
##  2 India                    2495458.               325338.
##  3 Brazil                   2273444.               780553.
##  4 Japan                    1406225.                58505.
##  5 Germany                   975483.                30184.
##  6 Canada                    911177.               104711.
##  7 Indonesia                 846752.               169662.
##  8 Australia                 776528.                12985.
##  9 Mexico                    638916.                27548.
## 10 France                    537658.                22672.
## # ... with 99 more rows

join%>%group_by(Country)%>%mutate(crime=Robbery_Count+Assault_Count)%>%summarize(mean=mean(crime),sd(crime),n(), var(crime), median(crime), mode(crime), min(crime), max(crime), range=max(crime)-min(crime), cor(crime,Total_Emissions))%>%arrange(desc(mean))

## # A tibble: 109 x 11
##    Country   mean `sd(crime)` `n()` `var(crime)` `median(crime)`
##    <chr>    <dbl>       <dbl> <int>        <dbl>           <dbl>
##  1 Brazil  1.66e6     113146.     7 12801989373.        1584544 
##  2 Mexico  8.78e5      87792.     9  7707479372.         907809 
##  3 Argent~ 4.99e5      23903.     4   571366230.         492881 
##  4 Germany 4.06e5     186602.    10 34820150009.         519908 
##  5 India   3.08e5      24965.     9   623255144.         301623 
##  6 France  3.06e5      39003.    10  1521249679.         293060.
##  7 Russia~ 2.77e5      99601.     9  9920305526.         289393 
##  8 Belgium 2.20e5      81893.    10  6706532374.         264849 
##  9 Turkey  1.76e5      60078.    10  3609350894.         167388 
## 10 Spain   1.24e5      19565.     5   382787536.         113960 
## # ... with 99 more rows, and 5 more variables: `mode(crime)` <chr>,
## #   `min(crime)` <dbl>, `max(crime)` <dbl>, range <dbl>, `cor(crime,
## #   Total_Emissions)` <dbl>

As for how a country’s emissions and crime rates are related, the correlation matrix shows a high correlation of 0.7 between the number of robberies and the number of assaults. This indicates that within countries, crime seems to increase together. There is also a correlation between the total emissions and the number of assaults with 0.63. The correlation between total emissions and robberies of 0.5.
Looking at the countries with the highest total greenhouse gases released, Brazil, Germany and India have the highest rates of crimes. This supports the correlation of these variables based on the fact these countries were among the highest in average crime and emissions.

cor<-join_nums<-join%>%select_if(is.numeric)%>%scale()%>%cov

join%>%filter(Total_Emissions>15000)%>%arrange(desc(Assault_Count), desc(Robbery_Count))

## # A tibble: 573 x 9
##    Region `Sub Region` Country  Year Robbery_Count Assault_Count
##    <chr>  <chr>        <chr>   <dbl>         <dbl>         <dbl>
##  1 Ameri~ South Ameri~ Brazil   2012        979571        732913
##  2 Ameri~ South Ameri~ Brazil   2011       1087059        717185
##  3 Ameri~ South Ameri~ Brazil   2010       1081041        715702
##  4 Ameri~ South Ameri~ Brazil   2006        894978        652778
##  5 Ameri~ South Ameri~ Brazil   2009        910679        651879
##  6 Ameri~ South Ameri~ Brazil   2008        934548        649996
##  7 Ameri~ South Ameri~ Brazil   2007        927667        649027
##  8 Europe Western Eur~ Germany  2007         52949        523283
##  9 Europe Western Eur~ Germany  2008         49913        518499
## 10 Europe Western Eur~ Germany  2006         53696        510775
## # ... with 563 more rows, and 3 more variables: CO2_Emissions <dbl>,
## #   Methane_Emissions <dbl>, Total_Emissions <dbl>
…
